<?xml version="1.0" encoding="UTF-8"?>
<con:resource xmlns:xsi="http://www.w3.org/2001/XMLSchema-instance" xmlns:con="http://eviware.com/soapui/config" name="/browse/categories" path="/browse/categories" id="b78987f6-323f-4c74-875e-806738cc1a24">
  <con:settings id="c18f5b22-86e7-446f-9ffd-f96411e6a32d">
    <con:setting id="b78987f6-323f-4c74-875e-806738cc1a24fileName">%2Fbrowse%2Fcategories</con:setting>
  </con:settings>
  <con:parameters/>
  <con:method name="get-categories" id="d60fa178-20d6-4b1b-a47a-01beb625f5d4" method="GET">
    <con:description>Get a list of categories used to tag items in Spotify (on, for example, the Spotify player’s “Browse” tab).</con:description>
    <con:settings/>
    <con:parameters>
      <con:parameter>
        <con:name>country</con:name>
        <con:style>QUERY</con:style>
      </con:parameter>
      <con:parameter>
        <con:name>locale</con:name>
        <con:style>QUERY</con:style>
      </con:parameter>
      <con:parameter>
        <con:name>limit</con:name>
        <con:value>20</con:value>
        <con:style>QUERY</con:style>
        <con:default>20</con:default>
      </con:parameter>
      <con:parameter>
        <con:name>offset</con:name>
        <con:value>0</con:value>
        <con:style>QUERY</con:style>
        <con:default>0</con:default>
      </con:parameter>
    </con:parameters>
    <con:representation type="RESPONSE">
      <con:mediaType>application/json</con:mediaType>
      <con:status>200</con:status>
      <con:params/>
      <con:description>A paged set of categories</con:description>
      <con:sampleContent>{
  "categories" : {
    "href" : "https://api.spotify.com/v1/me/shows?offset=0&amp;limit=20\n",
    "items" : [ {
      "href" : "string",
      "icons" : [ {
        "url" : "https://i.scdn.co/image/ab67616d00001e02ff9ca10b55ce82ae553c8228\n",
        "height" : 300,
        "width" : 300
      } ],
      "id" : "equal",
      "name" : "EQUAL"
    } ],
    "limit" : 20,
    "next" : "https://api.spotify.com/v1/me/shows?offset=1&amp;limit=1",
    "offset" : 0,
    "previous" : "https://api.spotify.com/v1/me/shows?offset=1&amp;limit=1",
    "total" : 4
  }
}</con:sampleContent>
    </con:representation>
    <con:representation type="RESPONSE">
      <con:mediaType>application/json</con:mediaType>
      <con:status>401</con:status>
      <con:params/>
      <con:description>Bad or expired token. This can happen if the user revoked a token or
the access token has expired. You should re-authenticate the user.</con:description>
      <con:sampleContent>{
  "error" : {
    "status" : 0,
    "message" : "string"
  }
}</con:sampleContent>
    </con:representation>
    <con:representation type="RESPONSE">
      <con:mediaType>application/json</con:mediaType>
      <con:status>403</con:status>
      <con:params/>
      <con:description>Bad OAuth request (wrong consumer key, bad nonce, expired
timestamp...). Unfortunately, re-authenticating the user won't help here.</con:description>
      <con:sampleContent>{
  "error" : {
    "status" : 0,
    "message" : "string"
  }
}</con:sampleContent>
    </con:representation>
    <con:representation type="RESPONSE">
      <con:mediaType>application/json</con:mediaType>
      <con:status>429</con:status>
      <con:params/>
      <con:description>The app has exceeded its rate limits.</con:description>
      <con:sampleContent>{
  "error" : {
    "status" : 0,
    "message" : "string"
  }
}</con:sampleContent>
    </con:representation>
    <con:request name="Request 1" id="f54d80c3-65e7-4d18-81b4-52cc337a1d3b" mediaType="application/json">
      <con:settings/>
      <con:endpoint>https://api.spotify.com/v1</con:endpoint>
      <con:credentials>
        <con:selectedAuthProfile>Inherit From Parent</con:selectedAuthProfile>
        <con:authType>No Authorization</con:authType>
      </con:credentials>
      <con:parameters/>
      <con:environmentSpec>
        <con:entry environmentId="03144120-4678-48ed-b47f-929e8e906fd7">
          <con:authProfile>Inherit From Parent</con:authProfile>
        </con:entry>
      </con:environmentSpec>
    </con:request>
    <con:environmentSpec>
      <con:entry environmentId="03144120-4678-48ed-b47f-929e8e906fd7">
        <con:authProfile>Inherit From Parent</con:authProfile>
      </con:entry>
    </con:environmentSpec>
  </con:method>
  <con:environmentSpec>
    <con:entry environmentId="03144120-4678-48ed-b47f-929e8e906fd7">
      <con:authProfile>Inherit From Parent</con:authProfile>
    </con:entry>
  </con:environmentSpec>
</con:resource>
