<?xml version="1.0" encoding="UTF-8"?>
<con:resource xmlns:xsi="http://www.w3.org/2001/XMLSchema-instance" xmlns:con="http://eviware.com/soapui/config" name="/me/albums" path="/me/albums" id="dcc5cfcf-d76b-42a0-9fd7-15b6df1b9179">
  <con:settings id="0ab436fa-fdc3-4272-9439-2b3170e9eef4">
    <con:setting id="dcc5cfcf-d76b-42a0-9fd7-15b6df1b9179fileName">%2Fme%2Falbums</con:setting>
  </con:settings>
  <con:parameters/>
  <con:method name="get-users-saved-albums" id="4a1de228-b7c2-45a7-be33-761e09c901a6" method="GET">
    <con:description>Get a list of the albums saved in the current Spotify user's 'Your Music' library.</con:description>
    <con:settings/>
    <con:parameters>
      <con:parameter>
        <con:name>limit</con:name>
        <con:value>20</con:value>
        <con:style>QUERY</con:style>
        <con:default>20</con:default>
      </con:parameter>
      <con:parameter>
        <con:name>offset</con:name>
        <con:value>0</con:value>
        <con:style>QUERY</con:style>
        <con:default>0</con:default>
      </con:parameter>
      <con:parameter>
        <con:name>market</con:name>
        <con:style>QUERY</con:style>
      </con:parameter>
    </con:parameters>
    <con:representation type="RESPONSE">
      <con:mediaType>application/json</con:mediaType>
      <con:status>200</con:status>
      <con:params/>
      <con:description>Pages of saved albums</con:description>
      <con:sampleContent><![CDATA[{
  "href" : "https://api.spotify.com/v1/me/shows?offset=0&limit=20\n",
  "items" : [ {
    "added_at" : "2015-07-20T15:49:04-07:00",
    "album" : {
      "album_type" : "compilation",
      "total_tracks" : 9,
      "available_markets" : [ "CA", "BR", "IT" ],
      "external_urls" : {
        "spotify" : "string"
      },
      "href" : "string",
      "id" : "2up3OPMp9Tb4dAKM2erWXQ",
      "images" : [ {
        "url" : "https://i.scdn.co/image/ab67616d00001e02ff9ca10b55ce82ae553c8228\n",
        "height" : 300,
        "width" : 300
      } ],
      "name" : "string",
      "release_date" : "1981-12",
      "release_date_precision" : "year",
      "restrictions" : {
        "reason" : "market"
      },
      "type" : "album",
      "uri" : "spotify:album:2up3OPMp9Tb4dAKM2erWXQ",
      "artists" : [ {
        "external_urls" : {
          "spotify" : "string"
        },
        "href" : "string",
        "id" : "string",
        "name" : "string",
        "type" : "artist",
        "uri" : "string"
      } ],
      "tracks" : {
        "href" : "https://api.spotify.com/v1/me/shows?offset=0&limit=20\n",
        "items" : [ {
          "artists" : [ {
            "external_urls" : {
              "spotify" : "string"
            },
            "href" : "string",
            "id" : "string",
            "name" : "string",
            "type" : "artist",
            "uri" : "string"
          } ],
          "available_markets" : [ "string" ],
          "disc_number" : 0,
          "duration_ms" : 0,
          "explicit" : true,
          "external_urls" : {
            "spotify" : "string"
          },
          "href" : "string",
          "id" : "string",
          "is_playable" : true,
          "linked_from" : {
            "external_urls" : {
              "spotify" : "string"
            },
            "href" : "string",
            "id" : "string",
            "type" : "string",
            "uri" : "string"
          },
          "restrictions" : {
            "reason" : "string"
          },
          "name" : "string",
          "preview_url" : "string",
          "track_number" : 0,
          "type" : "string",
          "uri" : "string",
          "is_local" : true
        } ],
        "limit" : 20,
        "next" : "https://api.spotify.com/v1/me/shows?offset=1&limit=1",
        "offset" : 0,
        "previous" : "https://api.spotify.com/v1/me/shows?offset=1&limit=1",
        "total" : 4
      },
      "popularity" : 0,
      "label" : "string",
      "external_ids" : {
        "isrc" : "string",
        "ean" : "string",
        "upc" : "string"
      },
      "genres" : [ "string" ],
      "copyrights" : [ {
        "text" : "string",
        "type" : "string"
      } ]
    }
  } ],
  "limit" : 20,
  "next" : "https://api.spotify.com/v1/me/shows?offset=1&limit=1",
  "offset" : 0,
  "previous" : "https://api.spotify.com/v1/me/shows?offset=1&limit=1",
  "total" : 4
}]]></con:sampleContent>
    </con:representation>
    <con:representation type="RESPONSE">
      <con:mediaType>application/json</con:mediaType>
      <con:status>401</con:status>
      <con:params/>
      <con:description>Bad or expired token. This can happen if the user revoked a token or
the access token has expired. You should re-authenticate the user.</con:description>
      <con:sampleContent>{
  "error" : {
    "status" : 0,
    "message" : "string"
  }
}</con:sampleContent>
    </con:representation>
    <con:representation type="RESPONSE">
      <con:mediaType>application/json</con:mediaType>
      <con:status>403</con:status>
      <con:params/>
      <con:description>Bad OAuth request (wrong consumer key, bad nonce, expired
timestamp...). Unfortunately, re-authenticating the user won't help here.</con:description>
      <con:sampleContent>{
  "error" : {
    "status" : 0,
    "message" : "string"
  }
}</con:sampleContent>
    </con:representation>
    <con:representation type="RESPONSE">
      <con:mediaType>application/json</con:mediaType>
      <con:status>429</con:status>
      <con:params/>
      <con:description>The app has exceeded its rate limits.</con:description>
      <con:sampleContent>{
  "error" : {
    "status" : 0,
    "message" : "string"
  }
}</con:sampleContent>
    </con:representation>
    <con:request name="Request 1" id="1c2a5663-fd87-4e6d-95d9-f8afce43b817" mediaType="application/json">
      <con:settings/>
      <con:endpoint>https://api.spotify.com/v1</con:endpoint>
      <con:credentials>
        <con:selectedAuthProfile>Inherit From Parent</con:selectedAuthProfile>
        <con:authType>No Authorization</con:authType>
      </con:credentials>
      <con:parameters/>
      <con:environmentSpec>
        <con:entry environmentId="03144120-4678-48ed-b47f-929e8e906fd7">
          <con:authProfile>Inherit From Parent</con:authProfile>
        </con:entry>
      </con:environmentSpec>
    </con:request>
    <con:environmentSpec>
      <con:entry environmentId="03144120-4678-48ed-b47f-929e8e906fd7">
        <con:authProfile>Inherit From Parent</con:authProfile>
      </con:entry>
    </con:environmentSpec>
  </con:method>
  <con:method name="remove-albums-user" id="2ce0ccf8-0e24-451f-a4d8-25125043cb6a" method="DELETE">
    <con:description>Remove one or more albums from the current user's 'Your Music' library.</con:description>
    <con:settings/>
    <con:parameters>
      <con:parameter required="true">
        <con:name>ids</con:name>
        <con:style>QUERY</con:style>
      </con:parameter>
    </con:parameters>
    <con:representation type="RESPONSE">
      <con:mediaType>application/json</con:mediaType>
      <con:status>401</con:status>
      <con:params/>
      <con:description>Bad or expired token. This can happen if the user revoked a token or
the access token has expired. You should re-authenticate the user.</con:description>
      <con:sampleContent>{
  "error" : {
    "status" : 0,
    "message" : "string"
  }
}</con:sampleContent>
    </con:representation>
    <con:representation type="RESPONSE">
      <con:mediaType>application/json</con:mediaType>
      <con:status>403</con:status>
      <con:params/>
      <con:description>Bad OAuth request (wrong consumer key, bad nonce, expired
timestamp...). Unfortunately, re-authenticating the user won't help here.</con:description>
      <con:sampleContent>{
  "error" : {
    "status" : 0,
    "message" : "string"
  }
}</con:sampleContent>
    </con:representation>
    <con:representation type="RESPONSE">
      <con:mediaType>application/json</con:mediaType>
      <con:status>429</con:status>
      <con:params/>
      <con:description>The app has exceeded its rate limits.</con:description>
      <con:sampleContent>{
  "error" : {
    "status" : 0,
    "message" : "string"
  }
}</con:sampleContent>
    </con:representation>
    <con:request name="Request 1" id="c1da58f9-7adf-4f12-abf7-f3c6d85a2155" mediaType="application/json">
      <con:settings/>
      <con:endpoint>https://api.spotify.com/v1</con:endpoint>
      <con:credentials>
        <con:selectedAuthProfile>Inherit From Parent</con:selectedAuthProfile>
        <con:authType>No Authorization</con:authType>
      </con:credentials>
      <con:parameters/>
      <con:environmentSpec>
        <con:entry environmentId="03144120-4678-48ed-b47f-929e8e906fd7">
          <con:authProfile>Inherit From Parent</con:authProfile>
        </con:entry>
      </con:environmentSpec>
    </con:request>
    <con:environmentSpec>
      <con:entry environmentId="03144120-4678-48ed-b47f-929e8e906fd7">
        <con:authProfile>Inherit From Parent</con:authProfile>
      </con:entry>
    </con:environmentSpec>
  </con:method>
  <con:method name="save-albums-user" id="d77d55dd-539d-419d-953b-13232460675e" method="PUT">
    <con:description>Save one or more albums to the current user's 'Your Music' library.</con:description>
    <con:settings/>
    <con:parameters>
      <con:parameter required="true">
        <con:name>ids</con:name>
        <con:style>QUERY</con:style>
      </con:parameter>
    </con:parameters>
    <con:representation type="RESPONSE">
      <con:mediaType>application/json</con:mediaType>
      <con:status>401</con:status>
      <con:params/>
      <con:description>Bad or expired token. This can happen if the user revoked a token or
the access token has expired. You should re-authenticate the user.</con:description>
      <con:sampleContent>{
  "error" : {
    "status" : 0,
    "message" : "string"
  }
}</con:sampleContent>
    </con:representation>
    <con:representation type="RESPONSE">
      <con:mediaType>application/json</con:mediaType>
      <con:status>403</con:status>
      <con:params/>
      <con:description>Bad OAuth request (wrong consumer key, bad nonce, expired
timestamp...). Unfortunately, re-authenticating the user won't help here.</con:description>
      <con:sampleContent>{
  "error" : {
    "status" : 0,
    "message" : "string"
  }
}</con:sampleContent>
    </con:representation>
    <con:representation type="RESPONSE">
      <con:mediaType>application/json</con:mediaType>
      <con:status>429</con:status>
      <con:params/>
      <con:description>The app has exceeded its rate limits.</con:description>
      <con:sampleContent>{
  "error" : {
    "status" : 0,
    "message" : "string"
  }
}</con:sampleContent>
    </con:representation>
    <con:representation type="REQUEST">
      <con:mediaType>application/json</con:mediaType>
      <con:params/>
      <con:sampleContent>{
  "ids" : [ "string" ]
}</con:sampleContent>
    </con:representation>
    <con:request name="Request 1" id="8cc2a7f1-082d-4968-9996-a2e80860bd1a" mediaType="application/json">
      <con:settings/>
      <con:endpoint>https://api.spotify.com/v1</con:endpoint>
      <con:request>{\r
  "ids" : [ "string" ]\r
}</con:request>
      <con:credentials>
        <con:selectedAuthProfile>Inherit From Parent</con:selectedAuthProfile>
        <con:authType>No Authorization</con:authType>
      </con:credentials>
      <con:parameters/>
      <con:environmentSpec>
        <con:entry environmentId="03144120-4678-48ed-b47f-929e8e906fd7">
          <con:authProfile>Inherit From Parent</con:authProfile>
        </con:entry>
      </con:environmentSpec>
    </con:request>
    <con:environmentSpec>
      <con:entry environmentId="03144120-4678-48ed-b47f-929e8e906fd7">
        <con:authProfile>Inherit From Parent</con:authProfile>
      </con:entry>
    </con:environmentSpec>
  </con:method>
  <con:environmentSpec>
    <con:entry environmentId="03144120-4678-48ed-b47f-929e8e906fd7">
      <con:authProfile>Inherit From Parent</con:authProfile>
    </con:entry>
  </con:environmentSpec>
</con:resource>
