<?xml version="1.0" encoding="UTF-8"?>
<con:resource xmlns:xsi="http://www.w3.org/2001/XMLSchema-instance" xmlns:con="http://eviware.com/soapui/config" name="/me/tracks" path="/me/tracks" id="402106dc-d590-43cd-8c1a-fac304a096f0">
  <con:settings id="df683e3e-54ef-4fc5-9b2f-1cdf7e842d7a">
    <con:setting id="402106dc-d590-43cd-8c1a-fac304a096f0fileName">%2Fme%2Ftracks</con:setting>
  </con:settings>
  <con:parameters/>
  <con:method name="get-users-saved-tracks" id="1715bcc0-5304-409e-989d-8bc35af93e9b" method="GET">
    <con:description>Get a list of the songs saved in the current Spotify user's 'Your Music' library.</con:description>
    <con:settings/>
    <con:parameters>
      <con:parameter>
        <con:name>market</con:name>
        <con:style>QUERY</con:style>
      </con:parameter>
      <con:parameter>
        <con:name>limit</con:name>
        <con:value>20</con:value>
        <con:style>QUERY</con:style>
        <con:default>20</con:default>
      </con:parameter>
      <con:parameter>
        <con:name>offset</con:name>
        <con:value>0</con:value>
        <con:style>QUERY</con:style>
        <con:default>0</con:default>
      </con:parameter>
    </con:parameters>
    <con:representation type="RESPONSE">
      <con:mediaType>application/json</con:mediaType>
      <con:status>200</con:status>
      <con:params/>
      <con:description>Pages of saved tracks</con:description>
      <con:sampleContent>{
  "href" : "https://api.spotify.com/v1/me/shows?offset=0&amp;limit=20\n",
  "items" : [ {
    "added_at" : "2015-07-20T15:49:04-07:00",
    "track" : {
      "album" : {
        "album_type" : "compilation",
        "total_tracks" : 9,
        "available_markets" : [ "CA", "BR", "IT" ],
        "external_urls" : {
          "spotify" : "string"
        },
        "href" : "string",
        "id" : "2up3OPMp9Tb4dAKM2erWXQ",
        "images" : [ {
          "url" : "https://i.scdn.co/image/ab67616d00001e02ff9ca10b55ce82ae553c8228\n",
          "height" : 300,
          "width" : 300
        } ],
        "name" : "string",
        "release_date" : "1981-12",
        "release_date_precision" : "year",
        "restrictions" : {
          "reason" : "market"
        },
        "type" : "album",
        "uri" : "spotify:album:2up3OPMp9Tb4dAKM2erWXQ",
        "album_group" : "compilation",
        "artists" : [ {
          "external_urls" : {
            "spotify" : "string"
          },
          "href" : "string",
          "id" : "string",
          "name" : "string",
          "type" : "artist",
          "uri" : "string"
        } ]
      },
      "artists" : [ {
        "external_urls" : {
          "spotify" : "string"
        },
        "followers" : {
          "href" : "string",
          "total" : 0
        },
        "genres" : [ "Prog rock", "Grunge" ],
        "href" : "string",
        "id" : "string",
        "images" : [ {
          "url" : "https://i.scdn.co/image/ab67616d00001e02ff9ca10b55ce82ae553c8228\n",
          "height" : 300,
          "width" : 300
        } ],
        "name" : "string",
        "popularity" : 0,
        "type" : "artist",
        "uri" : "string"
      } ],
      "available_markets" : [ "string" ],
      "disc_number" : 0,
      "duration_ms" : 0,
      "explicit" : true,
      "external_ids" : {
        "isrc" : "string",
        "ean" : "string",
        "upc" : "string"
      },
      "external_urls" : {
        "spotify" : "string"
      },
      "href" : "string",
      "id" : "string",
      "is_playable" : true,
      "linked_from" : {
        "external_urls" : {
          "spotify" : "string"
        },
        "href" : "string",
        "id" : "string",
        "type" : "string",
        "uri" : "string"
      },
      "restrictions" : {
        "reason" : "string"
      },
      "name" : "string",
      "popularity" : 0,
      "preview_url" : "string",
      "track_number" : 0,
      "type" : "string",
      "uri" : "string",
      "is_local" : true
    }
  } ],
  "limit" : 20,
  "next" : "https://api.spotify.com/v1/me/shows?offset=1&amp;limit=1",
  "offset" : 0,
  "previous" : "https://api.spotify.com/v1/me/shows?offset=1&amp;limit=1",
  "total" : 4
}</con:sampleContent>
    </con:representation>
    <con:representation type="RESPONSE">
      <con:mediaType>application/json</con:mediaType>
      <con:status>401</con:status>
      <con:params/>
      <con:description>Bad or expired token. This can happen if the user revoked a token or
the access token has expired. You should re-authenticate the user.</con:description>
      <con:sampleContent>{
  "error" : {
    "status" : 0,
    "message" : "string"
  }
}</con:sampleContent>
    </con:representation>
    <con:representation type="RESPONSE">
      <con:mediaType>application/json</con:mediaType>
      <con:status>403</con:status>
      <con:params/>
      <con:description>Bad OAuth request (wrong consumer key, bad nonce, expired
timestamp...). Unfortunately, re-authenticating the user won't help here.</con:description>
      <con:sampleContent>{
  "error" : {
    "status" : 0,
    "message" : "string"
  }
}</con:sampleContent>
    </con:representation>
    <con:representation type="RESPONSE">
      <con:mediaType>application/json</con:mediaType>
      <con:status>429</con:status>
      <con:params/>
      <con:description>The app has exceeded its rate limits.</con:description>
      <con:sampleContent>{
  "error" : {
    "status" : 0,
    "message" : "string"
  }
}</con:sampleContent>
    </con:representation>
    <con:request name="Request 1" id="f41b357b-33f0-4f2f-981d-884aa92c64b9" mediaType="application/json">
      <con:settings/>
      <con:endpoint>https://api.spotify.com/v1</con:endpoint>
      <con:request/>
      <con:credentials>
        <con:selectedAuthProfile>Inherit From Parent</con:selectedAuthProfile>
        <con:authType>No Authorization</con:authType>
      </con:credentials>
      <con:jmsConfig JMSDeliveryMode="PERSISTENT"/>
      <con:parameters/>
      <con:environmentSpec>
        <con:entry environmentId="03144120-4678-48ed-b47f-929e8e906fd7">
          <con:authProfile>Inherit From Parent</con:authProfile>
        </con:entry>
      </con:environmentSpec>
    </con:request>
    <con:environmentSpec>
      <con:entry environmentId="03144120-4678-48ed-b47f-929e8e906fd7">
        <con:authProfile>Inherit From Parent</con:authProfile>
      </con:entry>
    </con:environmentSpec>
  </con:method>
  <con:method name="remove-tracks-user" id="d8b92b56-0f33-4440-ba0f-b8b78ba78b1d" method="DELETE">
    <con:description>Remove one or more tracks from the current user's 'Your Music' library.</con:description>
    <con:settings/>
    <con:parameters>
      <con:parameter required="true">
        <con:name>ids</con:name>
        <con:style>QUERY</con:style>
      </con:parameter>
    </con:parameters>
    <con:representation type="RESPONSE">
      <con:mediaType>application/json</con:mediaType>
      <con:status>401</con:status>
      <con:params/>
      <con:description>Bad or expired token. This can happen if the user revoked a token or
the access token has expired. You should re-authenticate the user.</con:description>
      <con:sampleContent>{
  "error" : {
    "status" : 0,
    "message" : "string"
  }
}</con:sampleContent>
    </con:representation>
    <con:representation type="RESPONSE">
      <con:mediaType>application/json</con:mediaType>
      <con:status>403</con:status>
      <con:params/>
      <con:description>Bad OAuth request (wrong consumer key, bad nonce, expired
timestamp...). Unfortunately, re-authenticating the user won't help here.</con:description>
      <con:sampleContent>{
  "error" : {
    "status" : 0,
    "message" : "string"
  }
}</con:sampleContent>
    </con:representation>
    <con:representation type="RESPONSE">
      <con:mediaType>application/json</con:mediaType>
      <con:status>429</con:status>
      <con:params/>
      <con:description>The app has exceeded its rate limits.</con:description>
      <con:sampleContent>{
  "error" : {
    "status" : 0,
    "message" : "string"
  }
}</con:sampleContent>
    </con:representation>
    <con:request name="Request 1" id="2b64b627-4e3d-4a3d-852c-855433193725" mediaType="application/json">
      <con:settings/>
      <con:endpoint>https://api.spotify.com/v1</con:endpoint>
      <con:request/>
      <con:credentials>
        <con:selectedAuthProfile>Inherit From Parent</con:selectedAuthProfile>
        <con:authType>No Authorization</con:authType>
      </con:credentials>
      <con:jmsConfig JMSDeliveryMode="PERSISTENT"/>
      <con:parameters/>
      <con:environmentSpec>
        <con:entry environmentId="03144120-4678-48ed-b47f-929e8e906fd7">
          <con:authProfile>Inherit From Parent</con:authProfile>
        </con:entry>
      </con:environmentSpec>
    </con:request>
    <con:environmentSpec>
      <con:entry environmentId="03144120-4678-48ed-b47f-929e8e906fd7">
        <con:authProfile>Inherit From Parent</con:authProfile>
      </con:entry>
    </con:environmentSpec>
  </con:method>
  <con:method name="save-tracks-user" id="055c6eed-3c20-45fc-9a6b-f9f3a4b05968" method="PUT">
    <con:description>Save one or more tracks to the current user's 'Your Music' library.</con:description>
    <con:settings/>
    <con:parameters>
      <con:parameter required="true">
        <con:name>ids</con:name>
        <con:style>QUERY</con:style>
      </con:parameter>
    </con:parameters>
    <con:representation type="RESPONSE">
      <con:mediaType>application/json</con:mediaType>
      <con:status>401</con:status>
      <con:params/>
      <con:description>Bad or expired token. This can happen if the user revoked a token or
the access token has expired. You should re-authenticate the user.</con:description>
      <con:sampleContent>{
  "error" : {
    "status" : 0,
    "message" : "string"
  }
}</con:sampleContent>
    </con:representation>
    <con:representation type="RESPONSE">
      <con:mediaType>application/json</con:mediaType>
      <con:status>403</con:status>
      <con:params/>
      <con:description>Bad OAuth request (wrong consumer key, bad nonce, expired
timestamp...). Unfortunately, re-authenticating the user won't help here.</con:description>
      <con:sampleContent>{
  "error" : {
    "status" : 0,
    "message" : "string"
  }
}</con:sampleContent>
    </con:representation>
    <con:representation type="RESPONSE">
      <con:mediaType>application/json</con:mediaType>
      <con:status>429</con:status>
      <con:params/>
      <con:description>The app has exceeded its rate limits.</con:description>
      <con:sampleContent>{
  "error" : {
    "status" : 0,
    "message" : "string"
  }
}</con:sampleContent>
    </con:representation>
    <con:representation type="REQUEST">
      <con:mediaType>application/json</con:mediaType>
      <con:params/>
      <con:sampleContent>{
  "ids" : [ "string" ]
}</con:sampleContent>
    </con:representation>
    <con:request name="Request 1" id="bd9300f9-ce18-43c9-8e9a-6730ad75ff9e" mediaType="application/json">
      <con:settings/>
      <con:endpoint>https://api.spotify.com/v1</con:endpoint>
      <con:request>{\r
  "ids" : [ "string" ]\r
}</con:request>
      <con:credentials>
        <con:selectedAuthProfile>Inherit From Parent</con:selectedAuthProfile>
        <con:authType>No Authorization</con:authType>
      </con:credentials>
      <con:jmsConfig JMSDeliveryMode="PERSISTENT"/>
      <con:parameters/>
      <con:environmentSpec>
        <con:entry environmentId="03144120-4678-48ed-b47f-929e8e906fd7">
          <con:authProfile>Inherit From Parent</con:authProfile>
        </con:entry>
      </con:environmentSpec>
    </con:request>
    <con:environmentSpec>
      <con:entry environmentId="03144120-4678-48ed-b47f-929e8e906fd7">
        <con:authProfile>Inherit From Parent</con:authProfile>
      </con:entry>
    </con:environmentSpec>
  </con:method>
  <con:environmentSpec>
    <con:entry environmentId="03144120-4678-48ed-b47f-929e8e906fd7">
      <con:authProfile>Inherit From Parent</con:authProfile>
    </con:entry>
  </con:environmentSpec>
</con:resource>
